%YAML 1.1
%TAG !u! tag:unity3d.com,2011:
--- !u!1 &174002
GameObject:
  m_ObjectHideFlags: 0
  m_CorrespondingSourceObject: {fileID: 0}
  m_PrefabInstance: {fileID: 0}
  m_PrefabAsset: {fileID: 0}
  serializedVersion: 6
  m_Component:
  - component: {fileID: 405042}
  - component: {fileID: 11405652}
  - component: {fileID: 11437928}
  - component: {fileID: 11410018}
  m_Layer: 0
  m_Name: Player Controller
  m_TagString: Untagged
  m_Icon: {fileID: 0}
  m_NavMeshLayer: 0
  m_StaticEditorFlags: 0
  m_IsActive: 1
--- !u!4 &405042
Transform:
  m_ObjectHideFlags: 0
  m_CorrespondingSourceObject: {fileID: 0}
  m_PrefabInstance: {fileID: 0}
  m_PrefabAsset: {fileID: 0}
  m_GameObject: {fileID: 174002}
  m_LocalRotation: {x: 0, y: 0, z: 0, w: 1}
  m_LocalPosition: {x: 0, y: 0, z: 0}
  m_LocalScale: {x: 1, y: 1, z: 1}
  m_Children: []
  m_Father: {fileID: 0}
  m_RootOrder: 0
  m_LocalEulerAnglesHint: {x: 0, y: 0, z: 0}
--- !u!114 &11405652
MonoBehaviour:
  m_ObjectHideFlags: 0
  m_CorrespondingSourceObject: {fileID: 0}
  m_PrefabInstance: {fileID: 0}
  m_PrefabAsset: {fileID: 0}
  m_GameObject: {fileID: 174002}
  m_Enabled: 1
  m_EditorHideFlags: 0
  m_Script: {fileID: 11500000, guid: 4fde14656bc40455ba65844c093b79a3, type: 3}
  m_Name: 
  m_EditorClassIdentifier: 
  CarPrefabs:
  - {fileID: 171208, guid: 4910a004464ca4efa808af20d2eb1e15, type: 3}
  - {fileID: 121672, guid: 71e3000ee30414d368eeee6d87961b6d, type: 3}
  - {fileID: 108190, guid: 1fd2963e35ed24ba89705127fca0fba1, type: 3}
  - {fileID: 108190, guid: 9db296b8bb78143c1a5f7fa8f611967e, type: 3}
  MaximumSpeed: 20
  Drag: 5
--- !u!114 &11437928
MonoBehaviour:
  m_ObjectHideFlags: 0
  m_CorrespondingSourceObject: {fileID: 0}
  m_PrefabInstance: {fileID: 0}
  m_PrefabAsset: {fileID: 0}
  m_GameObject: {fileID: 174002}
  m_Enabled: 1
  m_EditorHideFlags: 0
  m_Script: {fileID: 11500000, guid: 541a76f9c03874323b5154b14ac00427, type: 3}
  m_Name: 
  m_EditorClassIdentifier: 
  spline: {fileID: 0}
  Speed: 0
  lookForward: 1
  reverse: 1
  currentDistance: 0
  currentClampedDistance: 0
--- !u!114 &11410018
MonoBehaviour:
  m_ObjectHideFlags: 0
  m_CorrespondingSourceObject: {fileID: 0}
  m_PrefabInstance: {fileID: 0}
  m_PrefabAsset: {fileID: 0}
  m_GameObject: {fileID: 174002}
  m_Enabled: 1
  m_EditorHideFlags: 0
  m_Script: {fileID: 11500000, guid: aa584fbee541324448dd18d8409c7a41, type: 3}
  m_Name: 
  m_EditorClassIdentifier: 
  ObservedComponentsFoldoutOpen: 1
  Group: 0
  prefixField: -1
  Synchronization: 3
  OwnershipTransfer: 0
  ObservedComponents:
  - {fileID: 11405652}
  viewIdField: 1
  InstantiationId: 1
  isRuntimeInstantiated: 0
